module gitlab.com/veselovav/eslogrus

go 1.18

require (
	github.com/elastic/go-elasticsearch v0.0.0
	github.com/elastic/go-elasticsearch/v8 v8.2.0
	github.com/sirupsen/logrus v1.8.1
)

require golang.org/x/sys v0.0.0-20191026070338-33540a1f6037 // indirect
